…
lq <- lq %>% 
  filter(country == "United States")
```

### Exercise 9

California has the most Denny’s locations.

``` r
dn %>% 
  count(state, sort = TRUE)
```

    ## # A tibble: 51 × 2
    ##    state     n
    ##    <chr> <int>
    ##  1 CA      403
    ##  2 TX      200
    ##  3 FL      140
    ##  4 AZ       83
    ##  5 IL       56
    ##  6 NY       56
    ##  7 WA       49
    ##  8 OH       44
    ##  9 MO       42
    ## 10 PA       40
    ## # ℹ 41 more rows

Alaska has the fewest Denny’s locations.

``` r
dn %>% 
  count(state, sort = FALSE)
```

    ## # A tibble: 51 × 2
    ##    state     n
    ##    <chr> <int>
    ##  1 AK        3
    ##  2 AL        7
    ##  3 AR        9
    ##  4 AZ       83
    ##  5 CA      403
    ##  6 CO       29
    ##  7 CT       12
    ##  8 DC        2
    ##  9 DE        1
    ## 10 FL      140
    ## # ℹ 41 more rows

Texas has the most La Quinta’s locations.

``` r
lq %>% 
  count(state, sort = TRUE)
```

    ## # A tibble: 48 × 2
    ##    state     n
    ##    <chr> <int>
    ##  1 TX      237
    ##  2 FL       74
    ##  3 CA       56
    ##  4 GA       41
    ##  5 TN       30
    ##  6 OK       29
    ##  7 LA       28
    ##  8 CO       27
    ##  9 NM       19
    ## 10 NY       19
    ## # ℹ 38 more rows

Alaska has the fewest Denny’s locations.

``` r
lq %>% 
  count(state, sort = FALSE)
```

    ## # A tibble: 48 × 2
    ##    state     n
    ##    <chr> <int>
    ##  1 AK        2
    ##  2 AL       16
    ##  3 AR       13
    ##  4 AZ       18
    ##  5 CA       56
    ##  6 CO       27
    ##  7 CT        6
    ##  8 FL       74
    ##  9 GA       41
    ## 10 IA        4
    ## # ℹ 38 more rows
…
### Exercise 10

Washington DC has the most Denny’s locations per thousand square miles.

``` r
dn %>% 
  count(state) %>% 
  inner_join(states, by = c("state" = "abbreviation")) %>% 
  mutate(density = area / n) %>% 
  arrange(density)
```

    ## # A tibble: 51 × 5
    ##    state     n name                     area density
    ##    <chr> <int> <chr>                   <dbl>   <dbl>
    ##  1 DC        2 District of Columbia     68.3    34.2
    ##  2 RI        5 Rhode Island           1545.    309. 
    ##  3 CA      403 California           163695.    406. 
    ##  4 CT       12 Connecticut            5543.    462. 
    ##  5 FL      140 Florida               65758.    470. 
    ##  6 MD       26 Maryland              12406.    477. 
    ##  7 NJ       10 New Jersey             8723.    872. 
    ##  8 NY       56 New York              54555.    974. 
    ##  9 IN       37 Indiana               36420.    984. 
    ## 10 OH       44 Ohio                  44826.   1019. 
    ## # ℹ 41 more rows

Rhode Island has the most La Quinta locations per thousand square miles.

``` r
lq %>% 
  count(state) %>% 
  inner_join(states, by = c("state" = "abbreviation")) %>% 
  mutate(density = area / n) %>% 
  arrange(density)
```

    ## # A tibble: 48 × 5
    ##    state     n name             area density
    ##    <chr> <int> <chr>           <dbl>   <dbl>
    ##  1 RI        2 Rhode Island    1545.    772.
    ##  2 FL       74 Florida        65758.    889.
    ##  3 CT        6 Connecticut     5543.    924.
    ##  4 MD       13 Maryland       12406.    954.
    ##  5 TX      237 Texas         268596.   1133.
    ##  6 TN       30 Tennessee      42144.   1405.
    ##  7 GA       41 Georgia        59425.   1449.
    ##  8 NJ        5 New Jersey      8723.   1745.
    ##  9 MA        6 Massachusetts  10554.   1759.
    ## 10 LA       28 Louisiana      52378.   1871.
    ## # ℹ 38 more rows
…
